0000.000 (0) Opened log file at time: Tue, 13 Feb 2018 23:05:33 +0000 on http://www.pipertalent.com.au
0000.002 (0) UpdraftPlus WordPress backup plugin (https://updraftplus.com): 1.14.3 WP: 4.9.4 PHP: 7.1.13 (cgi-fcgi, Linux rsl-wc4.au.syrahost.com 2.6.32-896.16.1.lve1.4.51.el6.x86_64 #1 SMP Wed Jan 17 13:19:23 EST 2018 x86_64) MySQL: 10.0.31 WPLANG: en_AU Server: Apache/2.2.34 (Unix) mod_ssl/2.2.34 OpenSSL/1.0.1e-fips mod_bwlimited/1.4 Phusion_Passenger/5.1.11 mod_perl/2.0.8 Perl/v5.10.1 safe_mode: 0 max_execution_time: 900 memory_limit: 256M (used: 41.1M | 42M) multisite: N openssl: OpenSSL 1.0.2k-fips  26 Jan 2017 mcrypt: Y LANG:  ZipArchive::addFile: Y
0000.204 (0) Free space on disk containing Updraft's temporary directory: 84728.9 MB
0000.209 (0) Tasks: Backup files: 1 (schedule: manual) Backup DB: 1 (schedule: manual)
0000.239 (0) Requesting semaphore lock (fd) (apparently not via scheduler)
0000.263 (0) Set semaphore last lock (fd) time to 2018-02-13 23:05:33
0000.275 (0) Semaphore lock (fd) complete
0000.303 (0) Backup run: resumption=0, nonce=f841918b1201, begun at=1518563133 (0s ago), job type=backup
0000.307 (0) Scheduling a resumption (1) after 300 seconds (1518563433) in case this run gets aborted
0000.361 (0) Checking if we have a zip executable available
0000.363 (0) Testing: /usr/bin/zip
0000.376 (0) Output: zip warning: binziptest/test.zip not found or empty
0000.379 (0) Output: adding: binziptest/subdir1/	(in=0) (out=0) (stored 0%)
0000.383 (0) Output: adding: binziptest/subdir1/subdir2/	(in=0) (out=0) (stored 0%)
0000.386 (0) Output: adding: binziptest/subdir1/subdir2/test.html	(in=131) (out=107) (deflated 18%)
0000.393 (0) Output: total bytes=131, compressed=107 -> 18% savings
0000.418 (0) Output: adding: binziptest/subdir1/subdir2/test2.html	(in=138) (out=113) (deflated 18%)
0000.421 (0) Output: total bytes=269, compressed=220 -> 18% savings
0000.450 (0) Working binary zip found: /usr/bin/zip
0000.455 (0) Zip engine: found/will use a binary zip: /usr/bin/zip
0000.478 (0) Creation of backups of directories: beginning
0000.492 (0) Beginning creation of dump of plugins (split every: 400 MB)
0005.592 (0) Total entities for the zip file: 589 directories, 3625 files (0 skipped as non-modified), 68.1 MB
0005.596 (0) Adding batch to zip file (UpdraftPlus_BinZip): over 2.0 seconds have passed since the last write (0 MB, 1 (1) files added so far); re-opening (prior size: 0 KB)
0005.711 (0) backup_2018-02-14-0935_Piper_Talent_f841918b1201-plugins.zip.tmp: size is now: 0.10 MB
0005.724 (0) Zip: backup_2018-02-14-0935_Piper_Talent_f841918b1201-plugins.zip.tmp: 100 files added (on-disk size: 136.9 KB)
0005.733 (0) Zip: backup_2018-02-14-0935_Piper_Talent_f841918b1201-plugins.zip.tmp: 200 files added (on-disk size: 136.9 KB)
0005.744 (0) Zip: backup_2018-02-14-0935_Piper_Talent_f841918b1201-plugins.zip.tmp: 300 files added (on-disk size: 136.9 KB)
0005.759 (0) Zip: backup_2018-02-14-0935_Piper_Talent_f841918b1201-plugins.zip.tmp: 400 files added (on-disk size: 136.9 KB)
0005.770 (0) Zip: backup_2018-02-14-0935_Piper_Talent_f841918b1201-plugins.zip.tmp: 500 files added (on-disk size: 136.9 KB)
0005.773 (0) Adding batch to zip file (UpdraftPlus_BinZip): over 500 files added on this batch (13.2 MB, 3625 files batched, 501 (502) added so far); re-opening (prior size: 136.9 KB)
0016.044 (0) backup_2018-02-14-0935_Piper_Talent_f841918b1201-plugins.zip.tmp: size is now: 5.10 MB
0016.076 (0) Zip: backup_2018-02-14-0935_Piper_Talent_f841918b1201-plugins.zip.tmp: 600 files added (on-disk size: 5246.8 KB)
0016.100 (0) Zip: backup_2018-02-14-0935_Piper_Talent_f841918b1201-plugins.zip.tmp: 700 files added (on-disk size: 5246.8 KB)
0016.121 (0) Zip: backup_2018-02-14-0935_Piper_Talent_f841918b1201-plugins.zip.tmp: 800 files added (on-disk size: 5246.8 KB)
0016.132 (0) Zip: backup_2018-02-14-0935_Piper_Talent_f841918b1201-plugins.zip.tmp: 900 files added (on-disk size: 5246.8 KB)
0016.145 (0) Zip: backup_2018-02-14-0935_Piper_Talent_f841918b1201-plugins.zip.tmp: 1000 files added (on-disk size: 5246.8 KB)
0016.149 (0) Adding batch to zip file (UpdraftPlus_BinZip): over 500 files added on this batch (14.1 MB, 3625 files batched, 501 (1003) added so far); re-opening (prior size: 5246.8 KB)
0025.604 (0) backup_2018-02-14-0935_Piper_Talent_f841918b1201-plugins.zip.tmp: size is now: 9.10 MB
0025.618 (0) Zip: backup_2018-02-14-0935_Piper_Talent_f841918b1201-plugins.zip.tmp: 1100 files added (on-disk size: 9274 KB)
0025.633 (0) Zip: backup_2018-02-14-0935_Piper_Talent_f841918b1201-plugins.zip.tmp: 1200 files added (on-disk size: 9274 KB)
0025.646 (0) Zip: backup_2018-02-14-0935_Piper_Talent_f841918b1201-plugins.zip.tmp: 1300 files added (on-disk size: 9274 KB)
0025.659 (0) Zip: backup_2018-02-14-0935_Piper_Talent_f841918b1201-plugins.zip.tmp: 1400 files added (on-disk size: 9274 KB)
0025.673 (0) Zip: backup_2018-02-14-0935_Piper_Talent_f841918b1201-plugins.zip.tmp: 1500 files added (on-disk size: 9274 KB)
0025.699 (0) Adding batch to zip file (UpdraftPlus_BinZip): over 500 files added on this batch (2.4 MB, 3625 files batched, 501 (1504) added so far); re-opening (prior size: 9274 KB)
0032.839 (0) Zip: backup_2018-02-14-0935_Piper_Talent_f841918b1201-plugins.zip.tmp: 1600 files added (on-disk size: 10079.6 KB)
0032.850 (0) Zip: backup_2018-02-14-0935_Piper_Talent_f841918b1201-plugins.zip.tmp: 1700 files added (on-disk size: 10079.6 KB)
0032.861 (0) Zip: backup_2018-02-14-0935_Piper_Talent_f841918b1201-plugins.zip.tmp: 1800 files added (on-disk size: 10079.6 KB)
0032.870 (0) Zip: backup_2018-02-14-0935_Piper_Talent_f841918b1201-plugins.zip.tmp: 1900 files added (on-disk size: 10079.6 KB)
0032.881 (0) Zip: backup_2018-02-14-0935_Piper_Talent_f841918b1201-plugins.zip.tmp: 2000 files added (on-disk size: 10079.6 KB)
0032.883 (0) Adding batch to zip file (UpdraftPlus_BinZip): over 500 files added on this batch (18.3 MB, 3625 files batched, 501 (2005) added so far); re-opening (prior size: 10079.6 KB)
0046.787 (0) backup_2018-02-14-0935_Piper_Talent_f841918b1201-plugins.zip.tmp: size is now: 18.00 MB
0046.807 (0) Zip: backup_2018-02-14-0935_Piper_Talent_f841918b1201-plugins.zip.tmp: 2100 files added (on-disk size: 18437 KB)
0046.821 (0) Zip: backup_2018-02-14-0935_Piper_Talent_f841918b1201-plugins.zip.tmp: 2200 files added (on-disk size: 18437 KB)
0046.839 (0) Zip: backup_2018-02-14-0935_Piper_Talent_f841918b1201-plugins.zip.tmp: 2300 files added (on-disk size: 18437 KB)
0046.853 (0) Zip: backup_2018-02-14-0935_Piper_Talent_f841918b1201-plugins.zip.tmp: 2400 files added (on-disk size: 18437 KB)
0046.866 (0) Zip: backup_2018-02-14-0935_Piper_Talent_f841918b1201-plugins.zip.tmp: 2500 files added (on-disk size: 18437 KB)
0046.868 (0) Adding batch to zip file (UpdraftPlus_BinZip): over 500 files added on this batch (9.9 MB, 3625 files batched, 501 (2506) added so far); re-opening (prior size: 18437 KB)
0061.935 (0) Zip: backup_2018-02-14-0935_Piper_Talent_f841918b1201-plugins.zip.tmp: 2600 files added (on-disk size: 22002.1 KB)
0061.944 (0) Zip: backup_2018-02-14-0935_Piper_Talent_f841918b1201-plugins.zip.tmp: 2700 files added (on-disk size: 22002.1 KB)
0061.956 (0) Zip: backup_2018-02-14-0935_Piper_Talent_f841918b1201-plugins.zip.tmp: 2800 files added (on-disk size: 22002.1 KB)
0061.965 (0) Zip: backup_2018-02-14-0935_Piper_Talent_f841918b1201-plugins.zip.tmp: 2900 files added (on-disk size: 22002.1 KB)
0061.977 (0) Zip: backup_2018-02-14-0935_Piper_Talent_f841918b1201-plugins.zip.tmp: 3000 files added (on-disk size: 22002.1 KB)
0061.979 (0) Adding batch to zip file (UpdraftPlus_BinZip): over 500 files added on this batch (3.5 MB, 3625 files batched, 501 (3007) added so far); re-opening (prior size: 22002.1 KB)
0074.387 (0) Zip: backup_2018-02-14-0935_Piper_Talent_f841918b1201-plugins.zip.tmp: 3100 files added (on-disk size: 23110.6 KB)
0074.399 (0) Zip: backup_2018-02-14-0935_Piper_Talent_f841918b1201-plugins.zip.tmp: 3200 files added (on-disk size: 23110.6 KB)
0074.410 (0) Zip: backup_2018-02-14-0935_Piper_Talent_f841918b1201-plugins.zip.tmp: 3300 files added (on-disk size: 23110.6 KB)
0074.431 (0) Zip: backup_2018-02-14-0935_Piper_Talent_f841918b1201-plugins.zip.tmp: 3400 files added (on-disk size: 23110.6 KB)
0074.453 (0) Zip: backup_2018-02-14-0935_Piper_Talent_f841918b1201-plugins.zip.tmp: 3500 files added (on-disk size: 23110.6 KB)
0074.455 (0) Adding batch to zip file (UpdraftPlus_BinZip): over 500 files added on this batch (6 MB, 3625 files batched, 501 (3508) added so far); re-opening (prior size: 23110.6 KB)
0088.938 (0) Zip: backup_2018-02-14-0935_Piper_Talent_f841918b1201-plugins.zip.tmp: 3600 files added (on-disk size: 24638.3 KB)
0090.849 (0) Created plugins zip (0) - 24947.6 KB in 90.1 s (276.8 KB/s) (sha1: c0f334975f277aafc81ca0e3eda0d63717591391, sha256: ef77a79414bab7a30db24fc68b1b50ce92cdc3f21f87506a158cdc04540c5cb8)
0090.853 (0) Beginning creation of dump of themes (split every: 400 MB)
0091.635 (0) Total entities for the zip file: 146 directories, 846 files (0 skipped as non-modified), 34.6 MB
0091.647 (0) Zip: backup_2018-02-14-0935_Piper_Talent_f841918b1201-themes.zip.tmp: 100 files added (on-disk size: 0 KB)
0091.657 (0) Zip: backup_2018-02-14-0935_Piper_Talent_f841918b1201-themes.zip.tmp: 200 files added (on-disk size: 0 KB)
0091.667 (0) Zip: backup_2018-02-14-0935_Piper_Talent_f841918b1201-themes.zip.tmp: 300 files added (on-disk size: 0 KB)
0091.680 (0) Zip: backup_2018-02-14-0935_Piper_Talent_f841918b1201-themes.zip.tmp: 400 files added (on-disk size: 0 KB)
0091.697 (0) Zip: backup_2018-02-14-0935_Piper_Talent_f841918b1201-themes.zip.tmp: 500 files added (on-disk size: 0 KB)
0091.701 (0) Adding batch to zip file (UpdraftPlus_BinZip): over 500 files added on this batch (8.7 MB, 846 files batched, 501 (501) added so far); re-opening (prior size: 0 KB)
0094.865 (0) backup_2018-02-14-0935_Piper_Talent_f841918b1201-themes.zip.tmp: size is now: 4.10 MB
0094.888 (0) Zip: backup_2018-02-14-0935_Piper_Talent_f841918b1201-themes.zip.tmp: 600 files added (on-disk size: 4187.3 KB)
0094.898 (0) Zip: backup_2018-02-14-0935_Piper_Talent_f841918b1201-themes.zip.tmp: 700 files added (on-disk size: 4187.3 KB)
0094.907 (0) Zip: backup_2018-02-14-0935_Piper_Talent_f841918b1201-themes.zip.tmp: 800 files added (on-disk size: 4187.3 KB)
0094.911 (0) Adding batch to zip file (UpdraftPlus_BinZip): over 25 MB added on this batch (25.1 MB, 846 files batched, 326 (827) added so far); re-opening (prior size: 4187.3 KB)
0103.272 (0) backup_2018-02-14-0935_Piper_Talent_f841918b1201-themes.zip.tmp: size is now: 10.60 MB
0103.282 (0) A useful amount of data was added after this amount of zip processing: 8.9 s (normalised: 8.8 s, rate: 2896.5 KB/s)
0108.452 (0) Created themes zip (0) - 11024.5 KB in 17.4 s (632.9 KB/s) (sha1: 3843f5cd220b092fba69cf5530e15b2ddcb614f0, sha256: 969bb31afffb84e74ecf4865bf416331eb80d2d89567ea2c6ea45c2420b111ec)
0108.457 (0) Exclusion option setting (uploads): backup*,*backups,backwpup*,wp-clone,snapshots
0108.459 (0) Looking for candidates to back up in: /home12/gyredigi/public_html/pipertalent.com.au/wp-content/uploads
0108.460 (0) finding files: et_temp: adding to list (1)
0108.462 (0) finding files: 2016: adding to list (2)
0108.463 (0) finding files: 2017: adding to list (3)
0108.464 (0) finding files: 2018: adding to list (4)
0108.466 (0) finding files: wpcf7_uploads: adding to list (5)
0108.467 (0) Beginning creation of dump of uploads (split every: 400 MB)
0108.835 (0) Total entities for the zip file: 41 directories, 107 files (0 skipped as non-modified), 8.5 MB
0108.846 (0) Zip: backup_2018-02-14-0935_Piper_Talent_f841918b1201-uploads.zip.tmp: 100 files added (on-disk size: 0 KB)
0115.470 (0) backup_2018-02-14-0935_Piper_Talent_f841918b1201-uploads.zip.tmp: size is now: 8.50 MB
0115.709 (0) Created uploads zip (0) - 8701.2 KB in 7 s (1244.4 KB/s) (sha1: 04838bfa75605cfc4e409b222978e318877a39b3, sha256: e0eacb5684b7701fdaa8d963277b7cccca45e0f2ab2048cd2f7d772ff41706e0)
0115.714 (0) Beginning backup of other directories found in the content directory (index: 0)
0115.716 (0) Exclusion option setting (others): upgrade,cache,updraft,backup*,*backups,mysql.sql,debug.log
0115.717 (0) Looking for candidates to back up in: /home12/gyredigi/public_html/pipertalent.com.au/wp-content
0115.719 (0) finding files: themes: skipping: this is the themes directory
0115.720 (0) finding files: plugins: skipping: this is the plugins directory
0115.721 (0) finding files: index.php: adding to list (1)
0115.723 (0) finding files: uploads: skipping: this is the uploads directory
0115.724 (0) finding files: languages: adding to list (2)
0115.725 (0) finding files: upgrade: skipping: excluded by options
0115.728 (0) finding files: blogs.dir: adding to list (3)
0115.730 (0) finding files: advanced-cache.php: adding to list (4)
0115.738 (0) finding files: wp-cache-config.php: adding to list (5)
0115.740 (0) finding files: cache: skipping: excluded by options
0115.751 (0) finding files: updraft: skipping: this is the updraft directory
0115.846 (0) finding files: ewww: adding to list (6)
0115.855 (0) finding files: customer-area: adding to list (7)
0116.210 (0) Total entities for the zip file: 8 directories, 29 files (0 skipped as non-modified), 5.7 MB
0124.340 (0) backup_2018-02-14-0935_Piper_Talent_f841918b1201-others.zip.tmp: size is now: 2.30 MB
0124.405 (0) Created others zip (0) - 2338.5 KB in 8.2 s (284 KB/s) (sha1: f35d67e4ef242cfc4c381a0193760c182b9b3ebd, sha256: 23752939e745572a01a0747cd2f409ccdff86b42758b5e0a727f4993c71ec11c)
0124.413 (0) Saving backup status to database (elements: 8)
0124.423 (0) Beginning creation of database dump (WordPress DB)
0124.426 (0) Testing: /usr/bin/mysqldump
0124.874 (0) Binary mysqldump: error (code: 2)
0124.897 (0) Table wp_options: Total expected rows (approximate): 428
0124.962 (0) Table wp_options: Total rows added: 424 in 0.06 seconds
0124.964 (0) Table wp_options: finishing file (backup_2018-02-14-0935_Piper_Talent_f841918b1201-db-table-wp_options.table.gz - 135.6 KB)
0124.971 (0) Table wp_users: Total expected rows (approximate): 5
0124.976 (0) Table wp_users: Total rows added: 5 in 0.00 seconds
0124.978 (0) Table wp_users: finishing file (backup_2018-02-14-0935_Piper_Talent_f841918b1201-db-table-wp_users.table.gz - 0.9 KB)
0124.985 (0) Table wp_usermeta: Total expected rows (approximate): 101
0124.991 (0) Table wp_usermeta: Total rows added: 101 in 0.00 seconds
0124.993 (0) Table wp_usermeta: finishing file (backup_2018-02-14-0935_Piper_Talent_f841918b1201-db-table-wp_usermeta.table.gz - 2.4 KB)
0125.054 (0) Table wp_commentmeta: Total expected rows (approximate): 0
0125.066 (0) Table wp_commentmeta: Total rows added: 0 in 0.01 seconds
0125.068 (0) Table wp_commentmeta: finishing file (backup_2018-02-14-0935_Piper_Talent_f841918b1201-db-table-wp_commentmeta.table.gz - 0.4 KB)
0125.073 (0) Table wp_comments: Total expected rows (approximate): 0
0125.078 (0) Table wp_comments: Total rows added: 0 in 0.00 seconds
0125.081 (0) Table wp_comments: finishing file (backup_2018-02-14-0935_Piper_Talent_f841918b1201-db-table-wp_comments.table.gz - 0.5 KB)
0125.090 (0) Table wp_links: Total expected rows (approximate): 7
0125.101 (0) Table wp_links: Total rows added: 7 in 0.01 seconds
0125.104 (0) Table wp_links: finishing file (backup_2018-02-14-0935_Piper_Talent_f841918b1201-db-table-wp_links.table.gz - 0.6 KB)
0125.122 (0) Table wp_postmeta: Total expected rows (approximate): 705
0125.148 (0) Table wp_postmeta: Total rows added: 705 in 0.02 seconds
0125.151 (0) Table wp_postmeta: finishing file (backup_2018-02-14-0935_Piper_Talent_f841918b1201-db-table-wp_postmeta.table.gz - 8.6 KB)
0125.158 (0) Table wp_posts: Total expected rows (approximate): 750
0125.474 (0) Table wp_posts: Total rows added: 750 in 0.31 seconds
0125.476 (0) Table wp_posts: finishing file (backup_2018-02-14-0935_Piper_Talent_f841918b1201-db-table-wp_posts.table.gz - 196.1 KB)
0125.505 (0) Table wp_signups: Total expected rows (approximate): 0
0125.512 (0) Table wp_signups: Total rows added: 0 in 0.00 seconds
0125.514 (0) Table wp_signups: finishing file (backup_2018-02-14-0935_Piper_Talent_f841918b1201-db-table-wp_signups.table.gz - 0.5 KB)
0125.527 (0) Table wp_term_relationships: Total expected rows (approximate): 83
0125.533 (0) Table wp_term_relationships: Total rows added: 83 in 0.00 seconds
0125.535 (0) Table wp_term_relationships: finishing file (backup_2018-02-14-0935_Piper_Talent_f841918b1201-db-table-wp_term_relationships.table.gz - 0.6 KB)
0125.546 (0) Table wp_term_taxonomy: Total expected rows (approximate): 31
0125.554 (0) Table wp_term_taxonomy: Total rows added: 31 in 0.01 seconds
0125.556 (0) Table wp_term_taxonomy: finishing file (backup_2018-02-14-0935_Piper_Talent_f841918b1201-db-table-wp_term_taxonomy.table.gz - 0.9 KB)
0125.562 (0) Table wp_termmeta: Total expected rows (approximate): 0
0125.591 (0) Table wp_termmeta: Total rows added: 0 in 0.03 seconds
0125.594 (0) Table wp_termmeta: finishing file (backup_2018-02-14-0935_Piper_Talent_f841918b1201-db-table-wp_termmeta.table.gz - 0.4 KB)
0125.607 (0) Table wp_terms: Total expected rows (approximate): 31
0125.636 (0) Table wp_terms: Total rows added: 31 in 0.03 seconds
0125.639 (0) Table wp_terms: finishing file (backup_2018-02-14-0935_Piper_Talent_f841918b1201-db-table-wp_terms.table.gz - 0.8 KB)
0125.656 (0) Table wp_bp_activity: Total expected rows (approximate): 2
0125.669 (0) Table wp_bp_activity: Total rows added: 2 in 0.01 seconds
0125.673 (0) Table wp_bp_activity: finishing file (backup_2018-02-14-0935_Piper_Talent_f841918b1201-db-table-wp_bp_activity.table.gz - 0.6 KB)
0125.694 (0) Table wp_bp_activity_meta: Total expected rows (approximate): 0
0125.703 (0) Table wp_bp_activity_meta: Total rows added: 0 in 0.01 seconds
0125.707 (0) Table wp_bp_activity_meta: finishing file (backup_2018-02-14-0935_Piper_Talent_f841918b1201-db-table-wp_bp_activity_meta.table.gz - 0.4 KB)
0125.720 (0) Table wp_bp_notifications: Total expected rows (approximate): 0
0125.736 (0) Table wp_bp_notifications: Total rows added: 0 in 0.01 seconds
0125.742 (0) Table wp_bp_notifications: finishing file (backup_2018-02-14-0935_Piper_Talent_f841918b1201-db-table-wp_bp_notifications.table.gz - 0.4 KB)
0125.758 (0) Table wp_bp_notifications_meta: Total expected rows (approximate): 0
0125.763 (0) Table wp_bp_notifications_meta: Total rows added: 0 in 0.00 seconds
0125.765 (0) Table wp_bp_notifications_meta: finishing file (backup_2018-02-14-0935_Piper_Talent_f841918b1201-db-table-wp_bp_notifications_meta.table.gz - 0.4 KB)
0125.784 (0) Table wp_bp_xprofile_data: Total expected rows (approximate): 0
0125.790 (0) Table wp_bp_xprofile_data: Total rows added: 0 in 0.00 seconds
0125.792 (0) Table wp_bp_xprofile_data: finishing file (backup_2018-02-14-0935_Piper_Talent_f841918b1201-db-table-wp_bp_xprofile_data.table.gz - 0.4 KB)
0125.800 (0) Table wp_bp_xprofile_fields: Total expected rows (approximate): 1
0125.815 (0) Table wp_bp_xprofile_fields: Total rows added: 1 in 0.01 seconds
0125.818 (0) Table wp_bp_xprofile_fields: finishing file (backup_2018-02-14-0935_Piper_Talent_f841918b1201-db-table-wp_bp_xprofile_fields.table.gz - 0.5 KB)
0125.830 (0) Table wp_bp_xprofile_groups: Total expected rows (approximate): 1
0125.835 (0) Table wp_bp_xprofile_groups: Total rows added: 1 in 0.00 seconds
0125.837 (0) Table wp_bp_xprofile_groups: finishing file (backup_2018-02-14-0935_Piper_Talent_f841918b1201-db-table-wp_bp_xprofile_groups.table.gz - 0.4 KB)
0125.846 (0) Table wp_bp_xprofile_meta: Total expected rows (approximate): 0
0125.855 (0) Table wp_bp_xprofile_meta: Total rows added: 0 in 0.00 seconds
0125.859 (0) Table wp_bp_xprofile_meta: finishing file (backup_2018-02-14-0935_Piper_Talent_f841918b1201-db-table-wp_bp_xprofile_meta.table.gz - 0.4 KB)
0125.873 (0) Table wp_ewwwio_images: Total expected rows (approximate): 236
0125.889 (0) Table wp_ewwwio_images: Total rows added: 236 in 0.01 seconds
0125.892 (0) Table wp_ewwwio_images: finishing file (backup_2018-02-14-0935_Piper_Talent_f841918b1201-db-table-wp_ewwwio_images.table.gz - 7.4 KB)
0125.899 (0) backup_2018-02-14-0935_Piper_Talent_f841918b1201-db-table-wp_options.table.gz (1/22): adding to final database dump
0125.943 (0) backup_2018-02-14-0935_Piper_Talent_f841918b1201-db-table-wp_users.table.gz (2/22): adding to final database dump
0125.946 (0) backup_2018-02-14-0935_Piper_Talent_f841918b1201-db-table-wp_usermeta.table.gz (3/22): adding to final database dump
0125.949 (0) backup_2018-02-14-0935_Piper_Talent_f841918b1201-db-table-wp_commentmeta.table.gz (4/22): adding to final database dump
0125.954 (0) backup_2018-02-14-0935_Piper_Talent_f841918b1201-db-table-wp_comments.table.gz (5/22): adding to final database dump
0125.956 (0) backup_2018-02-14-0935_Piper_Talent_f841918b1201-db-table-wp_links.table.gz (6/22): adding to final database dump
0125.959 (0) backup_2018-02-14-0935_Piper_Talent_f841918b1201-db-table-wp_postmeta.table.gz (7/22): adding to final database dump
0125.967 (0) backup_2018-02-14-0935_Piper_Talent_f841918b1201-db-table-wp_posts.table.gz (8/22): adding to final database dump
0126.073 (0) backup_2018-02-14-0935_Piper_Talent_f841918b1201-db-table-wp_signups.table.gz (9/22): adding to final database dump
0126.080 (0) backup_2018-02-14-0935_Piper_Talent_f841918b1201-db-table-wp_term_relationships.table.gz (10/22): adding to final database dump
0126.083 (0) backup_2018-02-14-0935_Piper_Talent_f841918b1201-db-table-wp_term_taxonomy.table.gz (11/22): adding to final database dump
0126.086 (0) backup_2018-02-14-0935_Piper_Talent_f841918b1201-db-table-wp_termmeta.table.gz (12/22): adding to final database dump
0126.088 (0) backup_2018-02-14-0935_Piper_Talent_f841918b1201-db-table-wp_terms.table.gz (13/22): adding to final database dump
0126.090 (0) backup_2018-02-14-0935_Piper_Talent_f841918b1201-db-table-wp_bp_activity.table.gz (14/22): adding to final database dump
0126.104 (0) backup_2018-02-14-0935_Piper_Talent_f841918b1201-db-table-wp_bp_activity_meta.table.gz (15/22): adding to final database dump
0126.107 (0) backup_2018-02-14-0935_Piper_Talent_f841918b1201-db-table-wp_bp_notifications.table.gz (16/22): adding to final database dump
0126.109 (0) backup_2018-02-14-0935_Piper_Talent_f841918b1201-db-table-wp_bp_notifications_meta.table.gz (17/22): adding to final database dump
0126.110 (0) backup_2018-02-14-0935_Piper_Talent_f841918b1201-db-table-wp_bp_xprofile_data.table.gz (18/22): adding to final database dump
0126.112 (0) backup_2018-02-14-0935_Piper_Talent_f841918b1201-db-table-wp_bp_xprofile_fields.table.gz (19/22): adding to final database dump
0126.114 (0) backup_2018-02-14-0935_Piper_Talent_f841918b1201-db-table-wp_bp_xprofile_groups.table.gz (20/22): adding to final database dump
0126.117 (0) backup_2018-02-14-0935_Piper_Talent_f841918b1201-db-table-wp_bp_xprofile_meta.table.gz (21/22): adding to final database dump
0126.119 (0) backup_2018-02-14-0935_Piper_Talent_f841918b1201-db-table-wp_ewwwio_images.table.gz (22/22): adding to final database dump
0126.127 (0) backup_2018-02-14-0935_Piper_Talent_f841918b1201-db.gz: finished writing out complete database file (336 KB)
0126.142 (0) Total database tables backed up: 22 (backup_2018-02-14-0935_Piper_Talent_f841918b1201-db.gz, size: 362482, sha256)
0126.157 (0) backup_2018-02-14-0935_Piper_Talent_f841918b1201-plugins.zip: plugins: This file has not yet been successfully uploaded: will queue
0126.159 (0) backup_2018-02-14-0935_Piper_Talent_f841918b1201-themes.zip: themes: This file has not yet been successfully uploaded: will queue
0126.161 (0) backup_2018-02-14-0935_Piper_Talent_f841918b1201-uploads.zip: uploads: This file has not yet been successfully uploaded: will queue
0126.162 (0) backup_2018-02-14-0935_Piper_Talent_f841918b1201-others.zip: others: This file has not yet been successfully uploaded: will queue
0126.163 (0) backup_2018-02-14-0935_Piper_Talent_f841918b1201-db.gz: db: This file has not yet been successfully uploaded: will queue
0126.165 (0) Saving backup history. Total backup size: 46.3 MB
0126.169 (0) Requesting upload of the files that have not yet been successfully uploaded (5)
0126.173 (0) Cloud backup selection (1/1): googledrive with instance (1/1) (last)
0126.175 (0) Beginning dispatch of backup to remote (googledrive) (instance identifier s-8623922d2bf916cf4db812cbebfc2043)
0132.322 (0) Google Drive quota usage: used=861 MB, total=30720 MB, available=29859 MB
0132.324 (0) backup_2018-02-14-0935_Piper_Talent_f841918b1201-plugins.zip: Attempting to upload to Google Drive (into folder id: 1u8wS9XVYBARKaWX-tG0A-lS7AaFH0L24)
0135.877 (0) Googledrive chunked upload: 4.1 % uploaded (1048576)
0138.210 (0) Googledrive chunked upload: 8.2 % uploaded (2097152)
0140.761 (0) Googledrive chunked upload: 12.3 % uploaded (3145728)
0143.075 (0) Googledrive chunked upload: 16.4 % uploaded (4194304)
0145.769 (0) Googledrive chunked upload: 20.5 % uploaded (5242880)
0148.105 (0) Googledrive chunked upload: 24.6 % uploaded (6291456)
0150.462 (0) Googledrive chunked upload: 28.7 % uploaded (7340032)
0153.201 (0) Googledrive chunked upload: 32.8 % uploaded (8388608)
0155.749 (0) Googledrive chunked upload: 36.9 % uploaded (9437184)
0158.103 (0) Googledrive chunked upload: 41 % uploaded (10485760)
0160.820 (0) Googledrive chunked upload: 45.2 % uploaded (11534336)
0163.186 (0) Googledrive chunked upload: 49.3 % uploaded (12582912)
0165.549 (0) Googledrive chunked upload: 53.4 % uploaded (13631488)
0167.911 (0) Googledrive chunked upload: 57.5 % uploaded (14680064)
0170.455 (0) Googledrive chunked upload: 61.6 % uploaded (15728640)
0172.773 (0) Googledrive chunked upload: 65.7 % uploaded (16777216)
0175.121 (0) Googledrive chunked upload: 69.8 % uploaded (17825792)
0177.482 (0) Googledrive chunked upload: 73.9 % uploaded (18874368)
0180.183 (0) Googledrive chunked upload: 78 % uploaded (19922944)
0182.528 (0) Googledrive chunked upload: 82.1 % uploaded (20971520)
0185.274 (0) Googledrive chunked upload: 86.2 % uploaded (22020096)
0187.680 (0) Googledrive chunked upload: 90.3 % uploaded (23068672)
0190.208 (0) Googledrive chunked upload: 94.4 % uploaded (24117248)
0192.731 (0) Googledrive chunked upload: 98.5 % uploaded (25165824)
0195.858 (0) Googledrive chunked upload: 100 % uploaded (25165824)
0195.873 (0) OK: Archive backup_2018-02-14-0935_Piper_Talent_f841918b1201-plugins.zip uploaded to Google Drive in 63.55 seconds
0195.877 (0) Recording as successfully uploaded: backup_2018-02-14-0935_Piper_Talent_f841918b1201-plugins.zip (d54eb03176e7a8ccd9ba7dbe385f0d3a)
0195.897 (0) Deleting local file: backup_2018-02-14-0935_Piper_Talent_f841918b1201-plugins.zip: OK
0197.047 (0) Google Drive quota usage: used=885.4 MB, total=30720 MB, available=29834.6 MB
0197.051 (0) backup_2018-02-14-0935_Piper_Talent_f841918b1201-themes.zip: Attempting to upload to Google Drive (into folder id: 1u8wS9XVYBARKaWX-tG0A-lS7AaFH0L24)
0200.608 (0) Googledrive chunked upload: 9.3 % uploaded (1048576)
0202.824 (0) Googledrive chunked upload: 18.6 % uploaded (2097152)
0205.564 (0) Googledrive chunked upload: 27.9 % uploaded (3145728)
0208.091 (0) Googledrive chunked upload: 37.2 % uploaded (4194304)
0210.641 (0) Googledrive chunked upload: 46.4 % uploaded (5242880)
0213.195 (0) Googledrive chunked upload: 55.7 % uploaded (6291456)
0215.784 (0) Googledrive chunked upload: 65 % uploaded (7340032)
0218.171 (0) Googledrive chunked upload: 74.3 % uploaded (8388608)
0220.724 (0) Googledrive chunked upload: 83.6 % uploaded (9437184)
0223.277 (0) Googledrive chunked upload: 92.9 % uploaded (10485760)
0226.848 (0) Googledrive chunked upload: 100 % uploaded (10485760)
0226.853 (0) OK: Archive backup_2018-02-14-0935_Piper_Talent_f841918b1201-themes.zip uploaded to Google Drive in 29.8 seconds
0226.856 (0) Recording as successfully uploaded: backup_2018-02-14-0935_Piper_Talent_f841918b1201-themes.zip (5cfeae837afaa2389d8f0ad7c1225a9d)
0226.867 (0) Deleting local file: backup_2018-02-14-0935_Piper_Talent_f841918b1201-themes.zip: OK
0227.926 (0) Google Drive quota usage: used=896.1 MB, total=30720 MB, available=29823.9 MB
0227.928 (0) backup_2018-02-14-0935_Piper_Talent_f841918b1201-uploads.zip: Attempting to upload to Google Drive (into folder id: 1u8wS9XVYBARKaWX-tG0A-lS7AaFH0L24)
0231.531 (0) Googledrive chunked upload: 11.8 % uploaded (1048576)
0233.751 (0) Googledrive chunked upload: 23.5 % uploaded (2097152)
0236.091 (0) Googledrive chunked upload: 35.3 % uploaded (3145728)
0238.616 (0) Googledrive chunked upload: 47.1 % uploaded (4194304)
0241.154 (0) Googledrive chunked upload: 58.8 % uploaded (5242880)
0243.842 (0) Googledrive chunked upload: 70.6 % uploaded (6291456)
0246.362 (0) Googledrive chunked upload: 82.4 % uploaded (7340032)
0248.869 (0) Googledrive chunked upload: 94.1 % uploaded (8388608)
0251.919 (0) Googledrive chunked upload: 100 % uploaded (8388608)
0251.925 (0) OK: Archive backup_2018-02-14-0935_Piper_Talent_f841918b1201-uploads.zip uploaded to Google Drive in 23.99 seconds
0251.927 (0) Recording as successfully uploaded: backup_2018-02-14-0935_Piper_Talent_f841918b1201-uploads.zip (c95c242e5a3b213dc89c03e74b94cb44)
0251.937 (0) Deleting local file: backup_2018-02-14-0935_Piper_Talent_f841918b1201-uploads.zip: OK
0253.091 (0) Google Drive quota usage: used=904.6 MB, total=30720 MB, available=29815.4 MB
0253.092 (0) backup_2018-02-14-0935_Piper_Talent_f841918b1201-others.zip: Attempting to upload to Google Drive (into folder id: 1u8wS9XVYBARKaWX-tG0A-lS7AaFH0L24)
0257.033 (0) The scheduled resumption is within 45 seconds - will reschedule
0257.036 (0) Rescheduling resumption 1: moving to 345 seconds from now (1518563735)
0257.040 (0) To decrease the likelihood of overlaps, increasing resumption interval to: 300 + 45 = 345
0257.046 (0) Googledrive chunked upload: 43.8 % uploaded (1048576)
0259.412 (0) Googledrive chunked upload: 87.6 % uploaded (2097152)
0262.032 (0) Googledrive chunked upload: 100 % uploaded (2097152)
0262.036 (0) OK: Archive backup_2018-02-14-0935_Piper_Talent_f841918b1201-others.zip uploaded to Google Drive in 8.94 seconds
0262.039 (0) Recording as successfully uploaded: backup_2018-02-14-0935_Piper_Talent_f841918b1201-others.zip (54f11ca9cbc6bd7cc0ec6ee0c06f7095)
0262.045 (0) Deleting local file: backup_2018-02-14-0935_Piper_Talent_f841918b1201-others.zip: OK
0263.121 (0) Google Drive quota usage: used=906.9 MB, total=30720 MB, available=29813.1 MB
0263.123 (0) backup_2018-02-14-0935_Piper_Talent_f841918b1201-db.gz: Attempting to upload to Google Drive (into folder id: 1u8wS9XVYBARKaWX-tG0A-lS7AaFH0L24)
0267.067 (0) Googledrive chunked upload: 100 % uploaded
0267.074 (0) OK: Archive backup_2018-02-14-0935_Piper_Talent_f841918b1201-db.gz uploaded to Google Drive in 3.95 seconds
0267.080 (0) Recording as successfully uploaded: backup_2018-02-14-0935_Piper_Talent_f841918b1201-db.gz (423cd92f1b8ecc8d9d2cf47914f0851d)
0267.085 (0) Deleting local file: backup_2018-02-14-0935_Piper_Talent_f841918b1201-db.gz: OK
0267.089 (0) Retain: beginning examination of existing backup sets; user setting: retain_files=2, retain_db=2
0267.091 (0) Number of backup sets in history: 3; groups (db): 1
0267.094 (0) Examining (for databases) backup set with group_id=0, nonce=f841918b1201, datestamp=1518563133 (Feb 13 2018 23:05:33)
0267.095 (0) This backup set is the backup set just made, so will not be deleted.
0267.095 (0) Examining (for databases) backup set with group_id=0, nonce=4bbf3500b987, datestamp=1517288189 (Jan 30 2018 04:56:29)
0267.095 (0) This backup set remains non-empty (f=1/d=1); will retain in history
0267.096 (0) Examining (for databases) backup set with group_id=0, nonce=f0895da8cac2, datestamp=1512603661 (Dec 06 2017 23:41:01)
0267.096 (0) 1512603661: db: this set includes a database (backup_2017-12-07-0911_Piper_Talent_f0895da8cac2-db.gz); db count is now 2
0267.096 (0) 1512603661: db: over retain limit (2); will delete this database
0267.097 (0) Delete file: backup_2017-12-07-0911_Piper_Talent_f0895da8cac2-db.gz, service=googledrive
0269.734 (0) backup_2017-12-07-0911_Piper_Talent_f0895da8cac2-db.gz: Deletion successful
0269.750 (0) This backup set remains non-empty (f=1/d=0); will retain in history
0269.752 (0) Number of backup sets in history: 3; groups (files): 1
0269.753 (0) Examining (for files) backup set with nonce=f841918b1201, datestamp=1518563133 (Feb 13 2018 23:05:33)
0269.753 (0) This backup set is the backup set just made, so will not be deleted.
0269.755 (0) This backup set is the backup set just made, so will not be deleted.
0269.755 (0) This backup set is the backup set just made, so will not be deleted.
0269.755 (0) This backup set is the backup set just made, so will not be deleted.
0269.756 (0) This backup set remains non-empty (f=1/d=1); will retain in history
0269.757 (0) Examining (for files) backup set with nonce=4bbf3500b987, datestamp=1517288189 (Jan 30 2018 04:56:29)
0269.757 (0) This backup set remains non-empty (f=1/d=1); will retain in history
0269.757 (0) Examining (for files) backup set with nonce=f0895da8cac2, datestamp=1512603661 (Dec 06 2017 23:41:01)
0269.757 (0) plugins: over retain limit (2); will delete this file entity
0269.758 (0) themes: over retain limit (2); will delete this file entity
0269.758 (0) uploads: over retain limit (2); will delete this file entity
0269.758 (0) others: over retain limit (2); will delete this file entity
0269.758 (0) Delete file: backup_2017-12-07-0911_Piper_Talent_f0895da8cac2-plugins.zip, service=googledrive
0269.759 (0) Delete file: backup_2017-12-07-0911_Piper_Talent_f0895da8cac2-themes.zip, service=googledrive
0269.760 (0) Delete file: backup_2017-12-07-0911_Piper_Talent_f0895da8cac2-uploads.zip, service=googledrive
0269.762 (0) Delete file: backup_2017-12-07-0911_Piper_Talent_f0895da8cac2-others.zip, service=googledrive
0272.472 (0) backup_2017-12-07-0911_Piper_Talent_f0895da8cac2-others.zip: Deletion successful
0273.797 (0) backup_2017-12-07-0911_Piper_Talent_f0895da8cac2-uploads.zip: Deletion successful
0275.159 (0) backup_2017-12-07-0911_Piper_Talent_f0895da8cac2-themes.zip: Deletion successful
0276.413 (0) backup_2017-12-07-0911_Piper_Talent_f0895da8cac2-plugins.zip: Deletion successful
0276.417 (0) This backup set is now empty; will remove from history
0276.419 (0) Deleting log file (log.f0895da8cac2.txt)
0276.427 (0) Retain: saving new backup history (sets now: 2) and finishing retain operation
0276.433 (0) Resume backup (f841918b1201, 0): finish run
0276.441 (0) Decremented the semaphore (fd) by 1
0276.446 (0) Semaphore (fd) unlocked
0276.461 (0) There were no errors in the uploads, so the 'resume' event (1) is being unscheduled
0276.467 (0) No email will/can be sent - the user has not configured an email address.
0276.473 (0) The backup apparently succeeded and is now complete
